(footprint "simple_no_rounding"
	(version 20240108)
	(generator "kicad-footprint-generator")
	(layer "F.Cu")
	(attr smd)
	(pad "" smd rect
		(at -0.525 0.3)
		(size 0.846537 0.564358)
		(layers "F.Paste")
	)
	(pad "" smd rect
		(at -0.525 1)
		(size 0.846537 0.564358)
		(layers "F.Paste")
	)
	(pad "" smd rect
		(at -0.525 1.7)
		(size 0.846537 0.564358)
		(layers "F.Paste")
	)
	(pad "" smd rect
		(at 0 1)
		(size 2.1 2.1)
		(layers "F.Mask")
	)
	(pad "" smd rect
		(at 0.525 0.3)
		(size 0.846537 0.564358)
		(layers "F.Paste")
	)
	(pad "" smd rect
		(at 0.525 1)
		(size 0.846537 0.564358)
		(layers "F.Paste")
	)
	(pad "" smd rect
		(at 0.525 1.7)
		(size 0.846537 0.564358)
		(layers "F.Paste")
	)
	(pad "3" thru_hole circle
		(at -0.75 -0.2)
		(size 0.6 0.6)
		(drill 0.3)
		(property pad_prop_heatsink)
		(layers "*.Cu")
		(remove_unused_layers no)
	)
	(pad "3" thru_hole circle
		(at -0.75 2.2)
		(size 0.6 0.6)
		(drill 0.3)
		(property pad_prop_heatsink)
		(layers "*.Cu")
		(remove_unused_layers no)
	)
	(pad "3" thru_hole circle
		(at 0 -0.2)
		(size 0.6 0.6)
		(drill 0.3)
		(property pad_prop_heatsink)
		(layers "*.Cu")
		(remove_unused_layers no)
	)
	(pad "3" smd rect
		(at 0 1)
		(size 2.1 3)
		(property pad_prop_heatsink)
		(layers "F.Cu")
		(zone_connect 2)
	)
	(pad "3" smd rect
		(at 0 1)
		(size 2.1 3)
		(property pad_prop_heatsink)
		(layers "B.Cu")
		(zone_connect 2)
	)
	(pad "3" thru_hole circle
		(at 0 2.2)
		(size 0.6 0.6)
		(drill 0.3)
		(property pad_prop_heatsink)
		(layers "*.Cu")
		(remove_unused_layers no)
	)
	(pad "3" thru_hole circle
		(at 0.75 -0.2)
		(size 0.6 0.6)
		(drill 0.3)
		(property pad_prop_heatsink)
		(layers "*.Cu")
		(remove_unused_layers no)
	)
	(pad "3" thru_hole circle
		(at 0.75 2.2)
		(size 0.6 0.6)
		(drill 0.3)
		(property pad_prop_heatsink)
		(layers "*.Cu")
		(remove_unused_layers no)
	)
)
