(footprint "polygon_pad"
	(version 20240108)
	(generator "kicad-footprint-generator")
	(layer "F.Cu")
	(attr smd)
	(pad "1" smd custom
		(at 0 0)
		(size 1 1)
		(layers "F.Cu" "F.Paste" "F.Mask")
		(options
			(clearance outline)
			(anchor circle)
		)
		(primitives
			(gr_poly
				(pts
					(xy -1 -1)
					(xy 2 -1)
					(xy 1 1)
					(xy -1 2)
				)
				(width 0)
			)
		)
	)
)
