(footprint "custom_pad_other"
	(version 20240108)
	(generator "kicad-footprint-generator")
	(layer "F.Cu")
	(attr smd)
	(pad "1" smd custom
		(at 0 0)
		(size 1 1)
		(layers "F.Cu" "F.Paste" "F.Mask")
		(options
			(clearance outline)
			(anchor circle)
		)
		(primitives
			(gr_arc
				(start -1 0.5)
				(mid -1.5 0)
				(end -1 -0.5)
				(width 0.15)
			)
			(gr_line
				(start -1 -0.5)
				(end 1.25 -0.5)
				(width 0.15)
			)
			(gr_line
				(start 1.25 -0.5)
				(end 1.25 0.5)
				(width 0.15)
			)
			(gr_line
				(start 1.25 0.5)
				(end -1 0.5)
				(width 0.15)
			)
		)
	)
	(pad "2" smd custom
		(at 0 3)
		(size 1 1)
		(layers "F.Cu" "F.Paste" "F.Mask")
		(options
			(clearance outline)
			(anchor circle)
		)
		(primitives
			(gr_arc
				(start -1 0.5)
				(mid -1.5 0)
				(end -1 -0.5)
				(width 0.15)
			)
			(gr_line
				(start -1 -0.5)
				(end 1.25 -0.5)
				(width 0.15)
			)
			(gr_line
				(start 1.25 -0.5)
				(end 1.25 0.5)
				(width 0.15)
			)
			(gr_line
				(start 1.25 0.5)
				(end -1 0.5)
				(width 0.15)
			)
		)
	)
	(pad "3" smd custom
		(at 0 -3)
		(size 1 1)
		(layers "F.Cu" "F.Paste" "F.Mask")
		(options
			(clearance outline)
			(anchor circle)
		)
		(primitives
			(gr_circle
				(center 0.5 0.5)
				(end 1 0.5)
				(width 0.15)
			)
		)
	)
)
