(footprint "chamfered_round_pad"
	(version 20240108)
	(generator "kicad-footprint-generator")
	(layer "F.Cu")
	(attr smd)
	(pad "1" smd custom
		(at 0 0)
		(size 3.646447 3.646447)
		(layers "F.Cu" "F.Paste" "F.Mask")
		(options
			(clearance outline)
			(anchor circle)
		)
		(primitives
			(gr_poly
				(pts
					(xy -2 -1.5)
					(xy -1.5 -2)
					(xy 1.5 -2)
					(xy 2 -1.5)
					(xy 2 1.5)
					(xy 1.5 2)
					(xy -1.5 2)
					(xy -2 1.5)
				)
				(width 0)
			)
		)
	)
	(pad "1" smd roundrect
		(at 0 0)
		(size 4 4)
		(layers "B.Cu")
		(roundrect_rratio 0.25)
	)
	(pad "1" smd custom
		(at 0 5)
		(size 2.292893 2.292893)
		(layers "F.Cu" "F.Paste" "F.Mask")
		(options
			(clearance outline)
			(anchor circle)
		)
		(primitives
			(gr_poly
				(pts
					(xy -2 -0.5)
					(xy -1 -1.5)
					(xy 1 -1.5)
					(xy 2 -0.5)
					(xy 2 0.5)
					(xy 1 1.5)
					(xy -1 1.5)
					(xy -2 0.5)
				)
				(width 0)
			)
		)
	)
	(pad "1" smd custom
		(at 0 5)
		(size 2.292893 2.292893)
		(layers "B.Cu")
		(options
			(clearance outline)
			(anchor circle)
		)
		(primitives
			(gr_poly
				(pts
					(xy -1.292893 -0.207107)
					(xy -0.707107 -0.792893)
					(xy 0.707107 -0.792893)
					(xy 1.292893 -0.207107)
					(xy 1.292893 0.207107)
					(xy 0.707107 0.792893)
					(xy -0.707107 0.792893)
					(xy -1.292893 0.207107)
				)
				(width 1.414214)
			)
		)
	)
	(pad "1" smd custom
		(at 5 0)
		(size 2.292893 2.292893)
		(layers "F.Cu" "F.Paste" "F.Mask")
		(options
			(clearance outline)
			(anchor circle)
		)
		(primitives
			(gr_poly
				(pts
					(xy -2 -0.5)
					(xy -1 -1.5)
					(xy 2 -1.5)
					(xy 2 0.5)
					(xy 1 1.5)
					(xy -2 1.5)
				)
				(width 0)
			)
		)
	)
	(pad "1" smd custom
		(at 5 0)
		(size 2.292893 2.292893)
		(layers "B.Cu")
		(options
			(clearance outline)
			(anchor circle)
		)
		(primitives
			(gr_poly
				(pts
					(xy -1.292893 -0.207107)
					(xy -0.707107 -0.792893)
					(xy 1.292893 -0.792893)
					(xy 1.292893 0.207107)
					(xy 0.707107 0.792893)
					(xy -1.292893 0.792893)
				)
				(width 1.414214)
			)
		)
	)
)
