(footprint "test_rotate_line"
	(version 20240108)
	(generator "kicad-footprint-generator")
	(layer "F.Cu")
	(attr smd)
	(fp_line
		(start 2 0)
		(end 1 -1)
		(stroke
			(width 0.12)
			(type solid)
		)
		(layer "F.SilkS")
	)
	(fp_line
		(start 2.068148 -0.517638)
		(end 1.361042 -1.742383)
		(stroke
			(width 0.12)
			(type solid)
		)
		(layer "F.SilkS")
	)
	(fp_line
		(start 2.068148 0.517638)
		(end 0.843403 -0.189469)
		(stroke
			(width 0.12)
			(type solid)
		)
		(layer "F.SilkS")
	)
	(fp_line
		(start 2.267949 -1)
		(end 1.901924 -2.366025)
		(stroke
			(width 0.12)
			(type solid)
		)
		(layer "F.SilkS")
	)
	(fp_line
		(start 2.267949 1)
		(end 0.901924 0.633975)
		(stroke
			(width 0.12)
			(type solid)
		)
		(layer "F.SilkS")
	)
	(fp_line
		(start 2.585786 -1.414214)
		(end 2.585786 -2.828427)
		(stroke
			(width 0.12)
			(type solid)
		)
		(layer "F.SilkS")
	)
	(fp_line
		(start 2.585786 1.414214)
		(end 1.171573 1.414214)
		(stroke
			(width 0.12)
			(type solid)
		)
		(layer "F.SilkS")
	)
	(fp_line
		(start 3 -1.732051)
		(end 3.366025 -3.098076)
		(stroke
			(width 0.12)
			(type solid)
		)
		(layer "F.SilkS")
	)
	(fp_line
		(start 3 1.732051)
		(end 1.633975 2.098076)
		(stroke
			(width 0.12)
			(type solid)
		)
		(layer "F.SilkS")
	)
	(fp_line
		(start 3.482362 -1.931852)
		(end 4.189469 -3.156597)
		(stroke
			(width 0.12)
			(type solid)
		)
		(layer "F.SilkS")
	)
	(fp_line
		(start 3.482362 1.931852)
		(end 2.257617 2.638958)
		(stroke
			(width 0.12)
			(type solid)
		)
		(layer "F.SilkS")
	)
	(fp_line
		(start 4 -2)
		(end 5 -3)
		(stroke
			(width 0.12)
			(type solid)
		)
		(layer "F.SilkS")
	)
	(fp_line
		(start 4 2)
		(end 3 3)
		(stroke
			(width 0.12)
			(type solid)
		)
		(layer "F.SilkS")
	)
	(fp_line
		(start 4.517638 -1.931852)
		(end 5.742383 -2.638958)
		(stroke
			(width 0.12)
			(type solid)
		)
		(layer "F.SilkS")
	)
	(fp_line
		(start 4.517638 1.931852)
		(end 3.810531 3.156597)
		(stroke
			(width 0.12)
			(type solid)
		)
		(layer "F.SilkS")
	)
	(fp_line
		(start 5 -1.732051)
		(end 6.366025 -2.098076)
		(stroke
			(width 0.12)
			(type solid)
		)
		(layer "F.SilkS")
	)
	(fp_line
		(start 5 1.732051)
		(end 4.633975 3.098076)
		(stroke
			(width 0.12)
			(type solid)
		)
		(layer "F.SilkS")
	)
	(fp_line
		(start 5.414214 -1.414214)
		(end 6.828427 -1.414214)
		(stroke
			(width 0.12)
			(type solid)
		)
		(layer "F.SilkS")
	)
	(fp_line
		(start 5.414214 1.414214)
		(end 5.414214 2.828427)
		(stroke
			(width 0.12)
			(type solid)
		)
		(layer "F.SilkS")
	)
	(fp_line
		(start 5.732051 -1)
		(end 7.098076 -0.633975)
		(stroke
			(width 0.12)
			(type solid)
		)
		(layer "F.SilkS")
	)
	(fp_line
		(start 5.732051 1)
		(end 6.098076 2.366025)
		(stroke
			(width 0.12)
			(type solid)
		)
		(layer "F.SilkS")
	)
	(fp_line
		(start 5.931852 -0.517638)
		(end 7.156597 0.189469)
		(stroke
			(width 0.12)
			(type solid)
		)
		(layer "F.SilkS")
	)
	(fp_line
		(start 5.931852 0.517638)
		(end 6.638958 1.742383)
		(stroke
			(width 0.12)
			(type solid)
		)
		(layer "F.SilkS")
	)
	(fp_line
		(start 6 0)
		(end 7 1)
		(stroke
			(width 0.12)
			(type solid)
		)
		(layer "F.SilkS")
	)
)
